* Host localhost:3001 was resolved.
* IPv6: ::1
* IPv4: 127.0.0.1
  % Total    % Received % Xferd  Average Speed   Time    Time     Time  Current
                                 Dload  Upload   Total   Spent    Left  Speed
  0     0    0     0    0     0      0      0 --:--:-- --:--:-- --:--:--     0*   Trying [::1]:3001...
* Established connection to localhost (::1 port 3001) from ::1 port 4183 
* using HTTP/1.x
> GET /store/products?collection=nouveautes HTTP/1.1
> Host: localhost:3001
> User-Agent: curl/8.16.0
> Accept: */*
> 
* Request completely sent off
  0     0    0     0    0     0      0      0 --:--:--  0:00:01 --:--:--     0  0     0    0     0    0     0      0      0 --:--:--  0:00:02 --:--:--     0  0     0    0     0    0     0      0      0 --:--:--  0:00:03 --:--:--     0< HTTP/1.1 200 OK
< X-Powered-By: Express
< Access-Control-Allow-Origin: http://localhost:3000
< Vary: Origin
< Access-Control-Allow-Credentials: true
< Content-Type: application/json; charset=utf-8
< Content-Length: 17994
< ETag: W/"464a-iOZvkCmfNT0vm7es2n+Cv4Izujk"
< Date: Wed, 21 Jan 2026 11:59:56 GMT
< Connection: keep-alive
< Keep-Alive: timeout=5
< 
{ [17994 bytes data]
{"data":[{"id":"cmkmfn550009x2f4baj8tofpv","title":"Collier Chai pavé de Zircons","slug":"collier-chai-pav-de-zircons","price":0,"compareAtPrice":null,"images":["https://tsniout-shop.fr/wp-content/uploads/2025/11/Gemini_Generated_Image_v7hnzv7hnzv7hnzv.jpg","https://tsniout-shop.fr/wp-content/uploads/2025/11/Gemini_Generated_Image_8wlxo98wlxo98wlx.jpg","https://tsniout-shop.fr/wp-content/uploads/2025/11/kf-Habb3b980371349b680057abba19147b5v.webp","https://tsniout-shop.fr/wp-content/uploads/2025/11/kf-H70a3e7ed9e5a453db8b49688d33f3c7fJ.webp"],"tags":[],"seoTitle":null,"seoMetaDescription":null,"options":[],"variants":[],"collection":{"id":"cmkmfmgvo00932f4bwoiea219","name":"Collier","slug":"collier"}},{"id":"cmkmfn1t6009r2f4b34uchmnz","title":"Collier pendentif Chai","slug":"collier-pendentif-chai-1","price":0,"compareAtPrice":null,"images":["https://tsniout-shop.fr/wp-content/uploads/2025/11/Gemini_Generated_Image_jbw9idjbw9idjbw9.jpg","https://tsniout-shop.fr/wp-content/uploads/2025/11/kf-H9a33bd2154694c5e8e4a2603d05b87067.webp","https://tsniout-shop.fr/wp-content/uploads/2025/11/kf-Hdfc7020c0925437286d5d3d6d7f3e30c9.webp","https://tsniout-shop.fr/wp-content/uploads/2025/11/kf-Hd76729c4f5f8493d9aa122656bd6b2bea.webp"],"tags":[],"seoTitle":null,"seoMetaDescription":null,"options":[],"variants":[],"collection":{"id":"cmkmfmgvo00932f4bwoiea219","name":"Collier","slug":"collier"}},{"id":"cmkmfmyeb009l2f4by1z2q1b6","title":"Collier Pendentif Chai","slug":"collier-pendentif-chai","price":0,"compareAtPrice":null,"images":["https://tsniout-shop.fr/wp-content/uploads/2025/11/Gemini_Generated_Image_eitwoqeitwoqeitw.jpg","https://tsniout-shop.fr/wp-content/uploads/2025/11/Gemini_Generated_Image_5v3aze5v3aze5v3a.jpg","https://tsniout-shop.fr/wp-content/uploads/2025/11/Gemini_Generated_Image_weuz1zweuz1zweuz.jpg","https://tsniout-shop.fr/wp-content/uploads/2025/11/Gemini_Generated_Image_x7aydnx7aydnx7ay.jpg","https://tsniout-shop.fr/wp-content/uploads/2025/11/Gemini_Generated_Image_r2cjxrr2cjxrr2cj.jpg"],"tags":[],"seoTitle":null,"seoMetaDescription":null,"options":[],"variants":[],"collection":{"id":"cmkmfmgvo00932f4bwoiea219","name":"Collier","slug":"collier"}},{"id":"cmkmfmt3l009i2f4bcq0qu0d4","title":"Collier pendentif Chai en acier inoxydable","slug":"collier-pendentif-chai-en-acier-inoxydable","price":0,"compareAtPrice":null,"images":["https://tsniout-shop.fr/wp-content/uploads/2025/11/kf-Sf850a75a0fa3458cbe32458521bb2490s.webp","https://tsniout-shop.fr/wp-content/uploads/2025/11/kf-S1a444a034b0444e58fecb904a8a3b78bG.webp","https://tsniout-shop.fr/wp-content/uploads/2025/11/kf-Sac3c5b1b890f4ed1b77991c5c9c2d439H.webp","https://tsniout-shop.fr/wp-content/uploads/2025/11/kf-S3c621119a9884854a0ad165c778050c8X.webp"],"tags":[],"seoTitle":null,"seoMetaDescription":null,"options":[],"variants":[],"collection":{"id":"cmkmfmgvo00932f4bwoiea219","name":"Collier","slug":"collier"}},{"id":"cmkmfmp2w009c2f4bpzu1x17i","title":"Collier Chai Hébreu en Acier Inoxydable","slug":"collier-chai-h-breu-en-acier-inoxydable","price":0,"compareAtPrice":null,"images":["https://tsniout-shop.fr/wp-content/uploads/2025/11/Gemini_Generated_Image_26ya3y26ya3y26ya.jpg","https://tsniout-shop.fr/wp-content/uploads/2025/11/Gemini_Generated_Image_x3hil4x3hil4x3hi.jpg","https://tsniout-shop.fr/wp-content/uploads/2025/11/Gemini_Generated_Image_exho99exho99exho.jpg","https://tsniout-shop.fr/wp-content/uploads/2025/11/Gemini_Generated_Image_v6umw2v6umw2v6um.jpg"],"tags":[],"seoTitle":null,"seoMetaDescription":null,"options":[],"variants":[],"collection":{"id":"cmkmfmgvo00932f4bwoiea219","name":"Collier","slug":"collier"}},{"id":"cmkmfmkfm00962f4ben07he3g","title":"Collier Chai Hébreu Minimaliste","slug":"collier-chai-h-breu-minimaliste","price":0,"compareAtPrice":null,"images":["https://tsniout-shop.fr/wp-content/uploads/2025/11/Gemini_Generated_Image_75bxil75bxil75bx.jpg","https://tsniout-shop.fr/wp-content/uploads/2025/11/Gemini_Generated_Image_yitoi0yitoi0yito.jpg","https://tsniout-shop.fr/wp-content/uploads/2025/11/kf-H12143bd9e31246cb81bf34eee74236d1j.webp","https://tsniout-shop.fr/wp-content/uploads/2025/11/kf-H83fffd968ae9491ab0fe8e4ae84b2457G.webp"],"tags":[],"seoTitle":null,"seoMetaDescription":null,"options":[],"variants":[],"collection":{"id":"cmkmfmgvo00932f4bwoiea219","name":"Collier","slug":"collier"}},{"id":"cmkmfmghm00902f4bvn12k6uz","title":"Chemise blanche oversize chic et moderne","slug":"chemise-blanche-oversize-chic-et-moderne","price":0,"compareAtPrice":null,"images":["https://tsniout-shop.fr/wp-content/uploads/2025/10/Gemini_Generated_Image_lc30y1lc30y1lc30.png","https://tsniout-shop.fr/wp-content/uploads/2025/10/Gemini_Generated_Image_81y7k781y7k781y7.png","https://tsniout-shop.fr/wp-content/uploads/2025/10/Gemini_Generated_Image_r5d4abr5d4abr5d4.png"],"tags":[],"seoTitle":null,"seoMetaDescription":null,"options":[],"variants":[],"collection":{"id":"cmkmdsonu004tv3n8l50c2wzz","name":"Chemisier","slug":"chemisier"}},{"id":"cmkmfmcf1008x2f4bdpeq8u2f","title":"Chemisier blanc romantique en dentelle","slug":"chemisier-blanc-romantique-en-dentelle","price":0,"compareAtPrice":null,"images":["https://tsniout-shop.fr/wp-content/uploads/2025/10/Gemini_Generated_Image_vn8g06vn8g06vn8g.png","https://tsniout-shop.fr/wp-content/uploads/2025/10/Gemini_Generated_Image_hlo4yhlo4yhlo4yh.png","https://tsniout-shop.fr/wp-content/uploads/2025/10/Gemini_Generated_Image_hj4abkhj4abkhj4a.png"],"tags":[],"seoTitle":null,"seoMetaDescription":null,"options":[],"variants":[{"id":"cmkmgye2t00015u8rfktjov4x","price":3900,"compareAtPrice":null}],"collection":{"id":"cmkmdsonu004tv3n8l50c2wzz","name":"Chemisier","slug":"chemisier"}},{"id":"cmkmfmbaq008u2f4bj0uxif9s","title":"Robes à volants Tsniout","slug":"robes-volants-tsniout","price":5900,"compareAtPrice":3900,"images":["https://tsniout-shop.fr/wp-content/uploads/2025/07/Gemini_Generated_Image_cptmricptmricptm.png","https://tsniout-shop.fr/wp-content/uploads/2025/07/Gemini_Generated_Image_6qwjkb6qwjkb6qwj.png","https://tsniout-shop.fr/wp-content/uploads/2025/07/Gemini_Generated_Image_g7x32ug7x32ug7x3.png","https://tsniout-shop.fr/wp-content/uploads/2025/07/image-33.webp","https://tsniout-shop.fr/wp-content/uploads/2025/07/Gemini_Generated_Image_g2pa66g2pa66g2pa.png"],"tags":[],"seoTitle":"","seoMetaDescription":"","options":[],"variants":[],"collection":{"id":"cmkmdqrkk0000v3n83no6qoz0","name":"Robe Tsniout","slug":"robe-tsniout"}},{"id":"cmkmfm9ml008r2f4bwhke7mv5","title":"Manteaux à lacets en daim","slug":"manteaux-lacets-en-daim","price":0,"compareAtPrice":null,"images":["https://tsniout-shop.fr/wp-content/uploads/2025/10/Gemini_Generated_Image_a42ku9a42ku9a42k.png","https://tsniout-shop.fr/wp-content/uploads/2025/10/Gemini_Generated_Image_inp9fvinp9fvinp9.png","https://tsniout-shop.fr/wp-content/uploads/2025/10/Gemini_Generated_Image_pp81j0pp81j0pp81-1.png"],"tags":[],"seoTitle":null,"seoMetaDescription":null,"options":[],"variants":[],"collection":{"id":"cmkmdrqdf002mv3n8c26dq8c5","name":"Veste Tsniout","slug":"veste-tsniout"}},{"id":"cmkmfm6l8008n2f4bamctqv43","title":"Veste Courte à Col Rabattu","slug":"veste-courte-col-rabattu","price":0,"compareAtPrice":null,"images":["https://tsniout-shop.fr/wp-content/uploads/2025/10/Gemini_Generated_Image_3tbpmt3tbpmt3tbp.png","https://tsniout-shop.fr/wp-content/uploads/2025/10/Gemini_Generated_Image_xgzdmdxgzdmdxgzd.png","https://tsniout-shop.fr/wp-content/uploads/2025/10/Gemini_Generated_Image_3fgibg3fgibg3fgi-1.png","https://tsniout-shop.fr/wp-content/uploads/2025/10/kf-S6f3d4e9a17a04db7aad8a78944c7815dJ.webp"],"tags":[],"seoTitle":null,"seoMetaDescription":null,"options":[],"variants":[],"collection":{"id":"cmkmdrqdf002mv3n8c26dq8c5","name":"Veste Tsniout","slug":"veste-tsniout"}},{"id":"cmkmfm6bn008l2f4bwlu3zqxe","title":"Modified Title","slug":"modified-title","price":9999,"compareAtPrice":3000,"images":["https://tsniout-shop.fr/wp-content/uploads/2025/07/Gemini_Generated_Image_fbk3wffbk3wffbk3.png","https://tsniout-shop.fr/wp-content/uploads/2025/07/Gemini_Generated_Image_bcveylbcveylbcve.png","https://tsniout-shop.fr/wp-content/uploads/2025/07/Gemini_Generated_Image_pa77o1pa77o1pa77.png","https://tsniout-shop.fr/wp-content/uploads/2025/07/Gemini_Generated_Image_fbrwclfbrwclfbrw.png","https://tsniout-shop.fr/wp-content/uploads/2025/07/Gemini_Generated_Image_xf2rxbxf2rxbxf2r.png"],"tags":[],"seoTitle":"","seoMetaDescription":"","options":[],"variants":[],"collection":{"id":"cmkmdqrkk0000v3n83no6qoz0","name":"Robe Tsniout","slug":"robe-tsniout"}},{"id":"cmkmfm1a3008i2f4b9n6hxgco","title":"Top blanc chic manches bouffantes","slug":"top-blanc-chic-manches-bouffantes","price":0,"compareAtPrice":null,"images":["https://tsniout-shop.fr/wp-content/uploads/2025/10/Gemini_Generated_Image_wnld99wnld99wnld-1.png","https://tsniout-shop.fr/wp-content/uploads/2025/10/Gemini_Generated_Image_so79wpso79wpso79.png","https://tsniout-shop.fr/wp-content/uploads/2025/10/Gemini_Generated_Image_eee3wdeee3wdeee3.png"],"tags":[],"seoTitle":null,"seoMetaDescription":null,"options":[],"variants":[],"collection":{"id":"cmkmdsonu004tv3n8l50c2wzz","name":"Chemisier","slug":"chemisier"}},{"id":"cmkmfm0sy008f2f4bv248qc31","title":"Robe longue trapèze brodée en Patchwork Tsniout","slug":"robe-longue-trap-ze-brod-e-en-patchwork-tsniout","price":0,"compareAtPrice":null,"images":["https://tsniout-shop.fr/wp-content/uploads/2025/07/Gemini_Generated_Image_2lppvu2lppvu2lpp.png","https://tsniout-shop.fr/wp-content/uploads/2025/07/Gemini_Generated_Image_6noxd86noxd86nox.png","https://tsniout-shop.fr/wp-content/uploads/2025/07/Gemini_Generated_Image_se3o3zse3o3zse3o.png","https://tsniout-shop.fr/wp-content/uploads/2025/07/image-31.webp","https://tsniout-shop.fr/wp-content/uploads/2025/07/Gemini_Generated_Image_ylrskcylrskcylrs.png"],"tags":[],"seoTitle":null,"seoMetaDescription":null,"options":[],"variants":[],"collection":{"id":"cmkmdqrkk0000v3n83no6qoz0","name":"Robe Tsniout","slug":"robe-tsniout"}},{"id":"cmkmflx6z008c2f4bdf32ask4","title":"Pull jaune col roulé oversize","slug":"pull-jaune-col-roul-oversize","price":0,"compareAtPrice":null,"images":["https://tsniout-shop.fr/wp-content/uploads/2025/10/Gemini_Generated_Image_wet10ywet10ywet1.png","https://tsniout-shop.fr/wp-content/uploads/2025/10/Gemini_Generated_Image_nnknmhnnknmhnnkn.png","https://tsniout-shop.fr/wp-content/uploads/2025/10/Gemini_Generated_Image_1mnhoe1mnhoe1mnh.png"],"tags":[],"seoTitle":null,"seoMetaDescription":null,"options":[],"variants":[],"collection":{"id":"cmkmdscrg004bv3n8yhkj03a2","name":"Pull","slug":"pull"}},{"id":"cmkmflujo00892f4b829nibct","title":"Blouson Bombardier à Paillettes Tsniout","slug":"blouson-bombardier-paillettes-tsniout","price":0,"compareAtPrice":null,"images":["https://tsniout-shop.fr/wp-content/uploads/2024/08/Gemini_Generated_Image_mlssy5mlssy5mlss.png","https://tsniout-shop.fr/wp-content/uploads/2024/08/Gemini_Generated_Image_wrrnnxwrrnnxwrrn.png","https://tsniout-shop.fr/wp-content/uploads/2024/08/Gemini_Generated_Image_x7nvcbx7nvcbx7nv.png","https://tsniout-shop.fr/wp-content/uploads/2024/08/Gemini_Generated_Image_31y2nu31y2nu31y2.png"],"tags":[],"seoTitle":null,"seoMetaDescription":null,"options":[],"variants":[],"collection":{"id":"cmkmdrqdf002mv3n8c26dq8c5","name":"Veste Tsniout","slug":"veste-tsniout"}},{"id":"cmkmflscd00862f4bm059yxw4","title":"Cardigan duveteux rose poudré","slug":"cardigan-duveteux-rose-poudr","price":0,"compareAtPrice":null,"images":["https://tsniout-shop.fr/wp-content/uploads/2025/10/Gemini_Generated_Image_i673pii673pii673.png","https://tsniout-shop.fr/wp-content/uploads/2025/10/Gemini_Generated_Image_91x29891x29891x2.png","https://tsniout-shop.fr/wp-content/uploads/2025/10/Gemini_Generated_Image_n774cin774cin774.png"],"tags":[],"seoTitle":null,"seoMetaDescription":null,"options":[],"variants":[],"collection":{"id":"cmkmdscrg004bv3n8yhkj03a2","name":"Pull","slug":"pull"}},{"id":"cmkmflqev00832f4biik8087z","title":"Jupe longue à volants Tsniout","slug":"jupe-longue-volants-tsniout","price":5900,"compareAtPrice":3900,"images":["https://tsniout-shop.fr/wp-content/uploads/2025/11/Gemini_Generated_Image_crc45ccrc45ccrc4.png","https://tsniout-shop.fr/wp-content/uploads/2025/11/Gemini_Generated_Image_zh9ex8zh9ex8zh9e.png","https://tsniout-shop.fr/wp-content/uploads/2025/11/Gemini_Generated_Image_vnbuj8vnbuj8vnbu.png","https://tsniout-shop.fr/wp-content/uploads/2025/11/Gemini_Generated_Image_quy47xquy47xquy4.png","https://tsniout-shop.fr/wp-content/uploads/2024/08/Gemini_Generated_Image_4jhqwt4jhqwt4jhq.png"],"tags":[],"seoTitle":"","seoMetaDescription":"","options":[{"id":"cmknxo0ms000d5je3inyzqccg","name":"Taille","values":["S","M","L","XL"]}],"variants":[{"id":"cmknxo0xz000e5je3yelw0zph","price":5900,"compareAtPrice":null},{"id":"cmknxo0y0000f5je3z88xxxuu","price":5900,"compareAtPrice":null},{"id":"cmknxo0y0000g5je3itj7t3km","price":5900,"compareAtPrice":null},{"id":"cmknxo0y0000h5je3f735f1ol","price":5900,"compareAtPrice":null}],"collection":{"id":"cmkmdr4om000xv3n8pgv6uql1","name":"Jupe Longue Tsniout","slug":"jupe-longue-tsniout"}},{"id":"cmkmflnhm00802f4b3kxzsvff","title":"Gilet en maille marron à poches","slug":"gilet-en-maille-marron-poches","price":0,"compareAtPrice":null,"images":["https://tsniout-shop.fr/wp-content/uploads/2025/10/Gemini_Generated_Image_uy33s6uy33s6uy33.png","https://tsniout-shop.fr/wp-content/uploads/2025/10/Gemini_Generated_Image_osrqprosrqprosrq.png","https://tsniout-shop.fr/wp-content/uploads/2025/10/Gemini_Generated_Image_bhcxawbhcxawbhcx.png","https://tsniout-shop.fr/wp-content/uploads/2025/10/kf-S76d349e273814733a683969eeb9f1eaah.webp","https://tsniout-shop.fr/wp-content/uploads/2025/10/kf-Sf0d8906c91d8484aa0e5275d104a7429D.webp","https://tsniout-shop.fr/wp-content/uploads/2025/10/kf-Sf0c78dbbc447496c8d2c882c6dd35074o.webp"],"tags":[],"seoTitle":null,"seoMetaDescription":null,"options":[],"variants":[],"collection":{"id":"cmkmflh2y007v2f4bek6cd3s5","name":"SEO","slug":"seo"}},{"id":"cmkmflj7v007x2f4bdm4g84xv","title":"Jupes longues taille haute à imprimé Python Tsniout","slug":"jupes-longues-taille-haute-imprim-python-tsniout-1","price":5900,"compareAtPrice":3900,"images":["https://tsniout-shop.fr/wp-content/uploads/2025/11/Gemini_Generated_Image_73mve673mve673mv.png","https://tsniout-shop.fr/wp-content/uploads/2025/11/Gemini_Generated_Image_2an7oj2an7oj2an7.png","https://tsniout-shop.fr/wp-content/uploads/2025/11/Gemini_Generated_Image_seya2pseya2pseya.png","https://tsniout-shop.fr/wp-content/uploads/2025/11/Gemini_Generated_Image_edmtxzedmtxzedmt.png","https://tsniout-shop.fr/wp-content/uploads/2025/11/Gemini_Generated_Image_f5haomf5haomf5ha.png"],"tags":[],"seoTitle":"","seoMetaDescription":"","options":[{"id":"cmknxms5g00075je3mw6v0mvd","name":"Taille","values":["S","M","L","XL"]}],"variants":[{"id":"cmknxmshu00085je3ksvyvaz6","price":5900,"compareAtPrice":null},{"id":"cmknxmshu00095je3qndg8cw8","price":5900,"compareAtPrice":null},{"id":"cmknxmshu000a5je3a6zcp2oh","price":5900,"compareAtPrice":null},{"id":"cmknxmshu000b5je3ldw7dxwy","price":5900,"compareAtPrice":null}],"collection":{"id":"cmkmdr4om000xv3n8pgv6uql1","name":"Jupe Longue Tsniout","slug":"jupe-longue-tsniout"}},{"id":"cmkmflgoc007u2f4bwzhuuttv","title":"Veste courte marron chic","slug":"veste-courte-marron-chic","price":0,"compareAtPrice":null,"images":["https://tsniout-shop.fr/wp-content/uploads/2025/10/Gemini_Generated_Image_7s4pwz7s4pwz7s4p.png","https://tsniout-shop.fr/wp-content/uploads/2025/10/Gemini_Generated_Image_hre9j6hre9j6hre9.png","https://tsniout-shop.fr/wp-content/uploads/2025/10/Gemini_Generated_Image_83l6bi83l6bi83l6.png"],"tags":[],"seoTitle":null,"seoMetaDescription":null,"options":[],"variants":[],"collection":{"id":"cmkmdrqdf002mv3n8c26dq8c5","name":"Veste Tsniout","slug":"veste-tsniout"}},{"id":"cmkmfldq9007q2f4bwtcm6uiv","title":"Veste blanche élégante coupe droite","slug":"veste-blanche-l-gante-coupe-droite","price":0,"compareAtPrice":null,"images":["https://tsniout-shop.fr/wp-content/uploads/2025/10/Gemini_Generated_Image_b9gefpb9gefpb9ge.png","https://tsniout-shop.fr/wp-content/uploads/2025/10/Gemini_Generated_Image_ah1krjah1krjah1k.png","https://tsniout-shop.fr/wp-content/uploads/2025/10/Gemini_Generated_Image_4ny2ai4ny2ai4ny2.png"],"tags":[],"seoTitle":null,"seoMetaDescription":null,"opti100 17994  100 17994    0     0   5469      0  0:00:03  0:00:03 --:--:--  5470
* Connection #0 to host localhost:3001 left intact
ons":[],"variants":[],"collection":{"id":"cmkmdrqdf002mv3n8c26dq8c5","name":"Veste Tsniout","slug":"veste-tsniout"}},{"id":"cmkmfldic007o2f4bzjkbg8wb","title":"Jupe longue plissée en tulle Tsniout","slug":"jupe-longue-pliss-e-en-tulle-tsniout-1","price":0,"compareAtPrice":null,"images":["https://tsniout-shop.fr/wp-content/uploads/2025/11/Gemini_Generated_Image_hqd3fihqd3fihqd3.png","https://tsniout-shop.fr/wp-content/uploads/2024/08/Gemini_Generated_Image_fmci5ifmci5ifmci.png","https://tsniout-shop.fr/wp-content/uploads/2025/11/Gemini_Generated_Image_hqd3fihqd3fihqd3.png","https://tsniout-shop.fr/wp-content/uploads/2025/11/image-9.webp","https://tsniout-shop.fr/wp-content/uploads/2025/11/Gemini_Generated_Image_srpvuusrpvuusrpv.png"],"tags":[],"seoTitle":null,"seoMetaDescription":null,"options":[],"variants":[],"collection":{"id":"cmkmdr4om000xv3n8pgv6uql1","name":"Jupe Longue Tsniout","slug":"jupe-longue-tsniout"}},{"id":"cmkmfl920007l2f4b2fc8xq2p","title":"Veste matelassée fleurie rose","slug":"veste-matelass-e-fleurie-rose","price":0,"compareAtPrice":null,"images":["https://tsniout-shop.fr/wp-content/uploads/2025/10/Gemini_Generated_Image_mductamductamduc.png","https://tsniout-shop.fr/wp-content/uploads/2025/10/Gemini_Generated_Image_jiamkojiamkojiam.png","https://tsniout-shop.fr/wp-content/uploads/2025/10/Gemini_Generated_Image_8j38m18j38m18j38.png"],"tags":[],"seoTitle":null,"seoMetaDescription":null,"options":[],"variants":[],"collection":{"id":"cmkmdrqdf002mv3n8c26dq8c5","name":"Veste Tsniout","slug":"veste-tsniout"}}],"pagination":{"total":170,"page":1,"limit":24,"pages":8}}